<?xml version="1.0" encoding="UTF-8"?>
<svg width="33px" height="39px" viewBox="0 0 33 39" version="1.1" xmlns="http://www.w3.org/2000/svg" xmlns:xlink="http://www.w3.org/1999/xlink">
    <!-- Generator: Sketch 51 (57462) - http://www.bohemiancoding.com/sketch -->
    <title>bra</title>
    <desc>Created with Sketch.</desc>
    <defs></defs>
    <g id="Page-1" stroke="none" stroke-width="1" fill="none" fill-rule="evenodd">
        <path d="M1,36.5351398 C1.04666054,37.3572748 1.72566073,38 2.54753585,38 C3.36941097,38 4.04841116,37.3572748 4.0950717,36.5351398 L4.0950717,33.4451095 L10.2902152,33.4451095 C14.5592864,33.4561913 18.0290875,29.9978535 18.0403948,25.7205345 L18.0403948,21.0849879 L22.6855024,21.0849879 L22.6855024,26.1528782 C21.4722203,26.8556273 20.8811256,28.2871118 21.244221,29.6433033 C21.6073165,30.9994948 22.834108,31.9423909 24.2355383,31.9423909 C25.6369686,31.9423909 26.8637601,30.9994948 27.2268556,29.6433033 C27.589951,28.2871118 26.9988563,26.8556273 25.7855742,26.1528782 L25.7855742,21.0849879 L30.4306818,21.0849879 C30.8901538,21.0837505 31.3261329,20.8813592 31.6241397,20.5309581 C31.9221466,20.1805568 32.0524072,19.7171545 31.9807177,19.2624311 L28.8806459,2.267264 C28.7430149,1.52180671 28.0871119,0.985682941 27.33061,1.00029143 L10.2902152,1.00029143 C9.53537179,0.987532652 8.8819359,1.52336835 8.74517943,2.267264 L5.64510761,19.2624311 C5.57199344,19.6663111 5.66212922,20.082746 5.89565852,20.4199975 C6.12918783,20.7572489 6.48695162,20.9876484 6.89013646,21.06044 C6.99076444,21.0785596 7.0929191,21.0867813 7.19514352,21.0849879 L14.940323,21.0849879 L14.940323,25.7205345 C14.9374097,26.9530515 14.4457711,28.1338906 13.5736337,29.0031092 C12.7014963,29.8723277 11.5203536,30.3586712 10.2902152,30.3550791 L4.0950717,30.3550791 L4.0950717,27.2650487 C4.04841116,26.4429137 3.36941097,25.8001885 2.54753585,25.8001885 C1.72566073,25.8001885 1.04666054,26.4429137 1,27.2650487 L1,36.5331359 L1,36.5351398 Z M11.5852452,4.09032181 L26.0405801,4.09032181 L28.5706387,17.9954585 L9.05518661,17.9954585 L11.5852452,4.09032181 Z" id="bra" stroke="#FFFFFF" stroke-width="0.5" fill="#A5A5A5" fill-rule="nonzero"></path>
    </g>
</svg>