<?xml version="1.0" encoding="UTF-8"?>
<svg width="37px" height="37px" viewBox="0 0 37 37" version="1.1" xmlns="http://www.w3.org/2000/svg" xmlns:xlink="http://www.w3.org/1999/xlink">
    <!-- Generator: Sketch 51 (57462) - http://www.bohemiancoding.com/sketch -->
    <title>went</title>
    <desc>Created with Sketch.</desc>
    <defs></defs>
    <g id="Page-1" stroke="none" stroke-width="1" fill="none" fill-rule="evenodd">
        <path d="M18.5,0.253424658 C8.4226947,0.253424658 0.253424658,8.4226947 0.253424658,18.5 C0.253424658,28.5773053 8.4226947,36.7465753 18.5,36.7465753 C28.5773053,36.7465753 36.7465753,28.5773053 36.7465753,18.5 C36.7170695,8.43494177 28.5650582,0.282930536 18.5,0.253424658 Z M18.5,33.0972603 C10.4381558,33.0972603 3.90273973,26.5618442 3.90273973,18.5 C3.90273973,10.4381558 10.4381558,3.90273973 18.5,3.90273973 C26.5618442,3.90273973 33.0972603,10.4381558 33.0972603,18.5 C33.0736002,26.5520236 26.5520236,33.0736002 18.5,33.0972603 Z M27.6232877,14.8506849 C25.492857,15.0171091 23.4005709,15.5094117 21.4194521,16.310411 L20.8720548,15.7630137 C21.5306196,13.6875022 21.9589474,11.5458633 22.1493151,9.37671233 C22.1493151,7.36125127 20.5154611,5.72739726 18.5,5.72739726 C16.4845389,5.72739726 14.8506849,7.36125127 14.8506849,9.37671233 C15.0171091,11.507143 15.5094117,13.5994291 16.310411,15.5805479 C15.9844506,15.72406 15.72406,15.9844506 15.5805479,16.310411 C13.5994291,15.5094117 11.507143,15.0171091 9.37671233,14.8506849 C7.36125127,14.8506849 5.72739726,16.4845389 5.72739726,18.5 C5.72739726,20.5154611 7.36125127,22.1493151 9.37671233,22.1493151 C11.507143,21.9828909 13.5994291,21.4905883 15.5805479,20.689589 L16.1279452,21.2369863 C15.4693804,23.3124978 15.0410526,25.4541367 14.8506849,27.6232877 C14.8506849,29.6387487 16.4845389,31.2726027 18.5,31.2726027 C20.5154611,31.2726027 22.1493151,29.6387487 22.1493151,27.6232877 C21.9828909,25.492857 21.4905883,23.4005709 20.689589,21.4194521 L21.2369863,20.8720548 C23.2181052,21.673054 25.3103913,22.1653566 27.4408219,22.3317808 C29.4538566,22.325935 31.0842912,20.6955004 31.090137,18.6824658 C31.197315,17.7008795 30.8795972,16.7203152 30.2171238,15.9881078 C29.5546504,15.2559004 28.6106693,14.8419553 27.6232877,14.8506849 Z M18.5,20.3246575 C17.4922695,20.3246575 16.6753425,19.5077305 16.6753425,18.5 C16.6753425,17.4922695 17.4922695,16.6753425 18.5,16.6753425 C19.5077305,16.6753425 20.3246575,17.4922695 20.3246575,18.5 C20.3545902,18.9924971 20.1719829,19.4742016 19.8230923,19.8230923 C19.4742016,20.1719829 18.9924971,20.3545902 18.5,20.3246575 Z" id="went" stroke="#FFFFFF" stroke-width="0.5" fill="#A5A5A5"></path>
    </g>
</svg>